{
    "Playlists": [
        {
            "ListTitle": "Zen Work Music",
            "ListItems": [
                {
                    "Title": "HEALING ZEN Music",
                    "link": "https://www.youtube.com/watch?v=SbCpzWMWb68",
                    "thumb": "https://i.ytimg.com/vi_webp/SbCpzWMWb68/mqdefault.webp"
                },
                {
                    "Title": "Relaxing Music - Meditation",
                    "link": "https://www.youtube.com/watch?v=qrx1vyvtRLY",
                    "thumb": "https://i.ytimg.com/vi_webp/qrx1vyvtRLY/mqdefault.webp"
                },
                {
                    "Title": "Relaxing Music - Background",
                    "link": "https://www.youtube.com/watch?v=loIZy6GqhUw",
                    "thumb": "https://i.ytimg.com/vi_webp/loIZy6GqhUw/mqdefault.webp"
                },
                {
                    "Title": "Delta Waves Sleep Music",
                    "link": "https://www.youtube.com/watch?v=EshmcHB3yMg",
                    "thumb": "https://i.ytimg.com/vi_webp/EshmcHB3yMg/mqdefault.webp"
                }
            ]
        },
        {
            "ListTitle": "Movie Trailers",
            "ListItems": [
                {
                    "Title": "Chappie",
                    "link": "https://www.youtube.com/watch?v=lyy7y0QOK-0",
                    "thumb": "https://i.ytimg.com/vi_webp/lyy7y0QOK-0/mqdefault.webp"
                },
                {
                    "Title": "Ex Machina",
                    "link": "https://www.youtube.com/watch?v=PI8XBKb6DQk",
                    "thumb": "https://i.ytimg.com/vi_webp/PI8XBKb6DQk/mqdefault.webp"
                },
                {
                    "Title": "The Martian",
                    "link": "https://www.youtube.com/watch?v=u-duq1iMkWU",
                    "thumb": "https://i.ytimg.com/vi_webp/u-duq1iMkWU/mqdefault.webp"
                },
                {
                    "Title": "Gods of Egypt",
                    "link": "https://www.youtube.com/watch?v=IJBnK2wNQSo",
                    "thumb": "https://i.ytimg.com/vi_webp/IJBnK2wNQSo/mqdefault.webp"
                },
                {
                    "Title": "Angry Birds",
                    "link": "https://www.youtube.com/watch?v=4pIi4tMJoUs",
                    "thumb": "https://i.ytimg.com/vi_webp/4pIi4tMJoUs/mqdefault.webp"
                }
            ]
        }
    ]
}